wave.vcd
$date
	Sat Jun 28 20:37:38 2025
$end
$version
	Icarus Verilog
$end
$timescale
	1s
$end
$scope module xgriscv_tb $end
$var wire 32 ! pcW [31:0] $end
$var reg 1 " clk $end
$var reg 1 # reset $end
$scope module xgriscvp $end
$var wire 4 $ amp [3:0] $end
$var wire 1 " clk $end
$var wire 1 # reset $end
$var wire 32 % writedata [31:0] $end
$var wire 32 & readdata [31:0] $end
$var wire 32 ' pcW [31:0] $end
$var wire 32 ( pcM [31:0] $end
$var wire 32 ) pcF [31:0] $end
$var wire 1 * memwrite $end
$var wire 32 + instr [31:0] $end
$var wire 32 , addr [31:0] $end
$scope module U_dmem $end
$var wire 1 " clk $end
$var wire 32 - rd [31:0] $end
$var wire 32 . wd [31:0] $end
$var wire 1 * we $end
$var wire 32 / pc [31:0] $end
$var wire 32 0 a [31:0] $end
$upscope $end
$scope module U_imem $end
$var wire 32 1 rd [31:0] $end
$var wire 32 2 a [31:0] $end
$upscope $end
$scope module U_xgriscv $end
$var wire 4 3 amp [3:0] $end
$var wire 1 4 bunsignedD $end
$var wire 1 " clk $end
$var wire 32 5 instr [31:0] $end
$var wire 1 6 jalD $end
$var wire 1 7 jalrD $end
$var wire 1 8 ltD $end
$var wire 1 9 lunsignedD $end
$var wire 2 : lwhbD [1:0] $end
$var wire 1 ; memtoregD $end
$var wire 1 < memwriteD $end
$var wire 1 = pcsrcD $end
$var wire 32 > readdata [31:0] $end
$var wire 1 # reset $end
$var wire 2 ? swhbD [1:0] $end
$var wire 32 @ writedata [31:0] $end
$var wire 1 A zeroD $end
$var wire 5 B rs1D [4:0] $end
$var wire 1 C regwriteD $end
$var wire 5 D rdD [4:0] $end
$var wire 32 E pcW [31:0] $end
$var wire 32 F pcM [31:0] $end
$var wire 32 G pcF [31:0] $end
$var wire 7 H opD [6:0] $end
$var wire 1 * memwrite $end
$var wire 1 I itypeD $end
$var wire 5 J immctrlD [4:0] $end
$var wire 12 K immD [11:0] $end
$var wire 7 L funct7D [6:0] $end
$var wire 3 M funct3D [2:0] $end
$var wire 32 N daddr [31:0] $end
$var wire 1 O alusrcbD $end
$var wire 2 P alusrcaD [1:0] $end
$var wire 4 Q aluctrlD [3:0] $end
$scope module c $end
$var wire 1 O alusrcb $end
$var wire 1 R btype $end
$var wire 1 4 bunsigned $end
$var wire 1 " clk $end
$var wire 1 I itype $end
$var wire 1 6 jal $end
$var wire 1 7 jalr $end
$var wire 1 S jtype $end
$var wire 1 8 lt $end
$var wire 1 9 lunsigned $end
$var wire 2 T lwhb [1:0] $end
$var wire 1 ; memtoreg $end
$var wire 1 < memwrite $end
$var wire 1 = pcsrc $end
$var wire 1 C regwrite $end
$var wire 1 # reset $end
$var wire 1 U rv32_add $end
$var wire 1 V rv32_addi $end
$var wire 1 W rv32_and $end
$var wire 1 X rv32_andi $end
$var wire 1 Y rv32_beq $end
$var wire 1 Z rv32_bge $end
$var wire 1 [ rv32_bgeu $end
$var wire 1 \ rv32_blt $end
$var wire 1 ] rv32_bltu $end
$var wire 1 ^ rv32_bne $end
$var wire 1 _ rv32_lb $end
$var wire 1 ` rv32_lbu $end
$var wire 1 a rv32_lh $end
$var wire 1 b rv32_lhu $end
$var wire 1 c rv32_lw $end
$var wire 1 d rv32_nop $end
$var wire 1 e rv32_or $end
$var wire 1 f rv32_ori $end
$var wire 1 g rv32_sb $end
$var wire 1 h rv32_sh $end
$var wire 1 i rv32_sll $end
$var wire 1 j rv32_slli $end
$var wire 1 k rv32_slt $end
$var wire 1 l rv32_slti $end
$var wire 1 m rv32_sltiu $end
$var wire 1 n rv32_sltu $end
$var wire 1 o rv32_sra $end
$var wire 1 p rv32_srai $end
$var wire 1 q rv32_srl $end
$var wire 1 r rv32_srli $end
$var wire 1 s rv32_sub $end
$var wire 1 t rv32_sw $end
$var wire 1 u rv32_xor $end
$var wire 1 v rv32_xori $end
$var wire 1 w stype $end
$var wire 2 x swhb [1:0] $end
$var wire 1 y utype $end
$var wire 1 A zero $end
$var wire 1 z rv32_store $end
$var wire 1 { rv32_rs1_x0 $end
$var wire 1 | rv32_rd_x0 $end
$var wire 1 } rv32_lui $end
$var wire 1 ~ rv32_load $end
$var wire 1 !" rv32_jalr $end
$var wire 1 "" rv32_jal $end
$var wire 1 #" rv32_branch $end
$var wire 1 $" rv32_auipc $end
$var wire 1 %" rv32_addrr $end
$var wire 1 &" rv32_addri $end
$var wire 5 '" rs1 [4:0] $end
$var wire 5 (" rd [4:0] $end
$var wire 7 )" opcode [6:0] $end
$var wire 5 *" immctrl [4:0] $end
$var wire 12 +" imm [11:0] $end
$var wire 7 ," funct7 [6:0] $end
$var wire 3 -" funct3 [2:0] $end
$var wire 2 ." alusrca [1:0] $end
$var reg 4 /" aluctrl [3:0] $end
$upscope $end
$scope module dp $end
$var wire 4 0" aluctrlD [3:0] $end
$var wire 2 1" alusrcaD [1:0] $end
$var wire 1 O alusrcbD $end
$var wire 12 2" bimmD [11:0] $end
$var wire 1 4 bunsignedD $end
$var wire 1 " clk $end
$var wire 1 3" flushD $end
$var wire 1 4" flushE $end
$var wire 1 5" flushM $end
$var wire 1 6" flushW $end
$var wire 5 7" immctrlD [4:0] $end
$var wire 32 8" instrF [31:0] $end
$var wire 1 I itype $end
$var wire 1 6 jalD $end
$var wire 1 7 jalrD $end
$var wire 20 9" jimmD [19:0] $end
$var wire 1 8 ltD $end
$var wire 1 9 lunsignedD $end
$var wire 2 :" lwhbD [1:0] $end
$var wire 1 ; memtoregD $end
$var wire 1 < memwriteD $end
$var wire 32 ;" pcbranchD [31:0] $end
$var wire 1 = pcsrcD $end
$var wire 32 <" readdataM [31:0] $end
$var wire 1 C regwriteD $end
$var wire 1 # reset $end
$var wire 12 =" simmD [11:0] $end
$var wire 2 >" swhbD [1:0] $end
$var wire 5 ?" waddrW [4:0] $end
$var wire 32 @" wdataW [31:0] $end
$var wire 32 A" writedataM [31:0] $end
$var wire 1 A zeroD $end
$var wire 1 B" zeroE $end
$var wire 20 C" uimmD [19:0] $end
$var wire 32 D" srcbE [31:0] $end
$var wire 32 E" srcb1E [31:0] $end
$var wire 32 F" srcaE [31:0] $end
$var wire 32 G" srca1E [31:0] $end
$var wire 5 H" rs2D [4:0] $end
$var wire 5 I" rs1D [4:0] $end
$var wire 1 J" regwriteW $end
$var wire 1 K" regwriteM $end
$var wire 1 L" regwriteE $end
$var wire 32 M" rdata2D [31:0] $end
$var wire 32 N" rdata1D [31:0] $end
$var wire 5 O" rdW [4:0] $end
$var wire 5 P" rdM [4:0] $end
$var wire 5 Q" rdE [4:0] $end
$var wire 5 R" rdD [4:0] $end
$var wire 32 S" pcplus4F [31:0] $end
$var wire 32 T" pcplus4E [31:0] $end
$var wire 32 U" pcplus4D [31:0] $end
$var wire 32 V" pcW [31:0] $end
$var wire 32 W" pcM [31:0] $end
$var wire 32 X" pcF [31:0] $end
$var wire 32 Y" pcE [31:0] $end
$var wire 32 Z" pcD [31:0] $end
$var wire 1 [" overflowE $end
$var wire 7 \" opD [6:0] $end
$var wire 32 ]" nextpcF [31:0] $end
$var wire 1 * memwriteM $end
$var wire 1 ^" memwriteE $end
$var wire 1 _" ltE $end
$var wire 32 `" instrD [31:0] $end
$var wire 32 a" immoutE [31:0] $end
$var wire 32 b" immoutD [31:0] $end
$var wire 12 c" immD [11:0] $end
$var wire 12 d" iimmD [11:0] $end
$var wire 1 e" geE $end
$var wire 7 f" funct7D [6:0] $end
$var wire 3 g" funct3D [2:0] $end
$var wire 1 h" alusrcbE $end
$var wire 2 i" alusrcaE [1:0] $end
$var wire 32 j" aluoutW [31:0] $end
$var wire 32 k" aluoutM [31:0] $end
$var wire 32 l" aluoutE [31:0] $end
$var wire 4 m" aluctrlE [3:0] $end
$scope module alu $end
$var wire 4 n" aluctrl [3:0] $end
$var wire 1 e" ge $end
$var wire 1 o" op_unsigned $end
$var wire 1 [" overflow $end
$var wire 5 p" shamt [4:0] $end
$var wire 33 q" sum [32:0] $end
$var wire 1 B" zero $end
$var wire 1 _" lt $end
$var wire 32 r" b2 [31:0] $end
$var wire 32 s" b [31:0] $end
$var wire 32 t" a [31:0] $end
$var reg 32 u" aluout [31:0] $end
$upscope $end
$scope module im $end
$var wire 12 v" bimm [11:0] $end
$var wire 12 w" iimm [11:0] $end
$var wire 5 x" immctrl [4:0] $end
$var wire 20 y" jimm [19:0] $end
$var wire 12 z" simm [11:0] $end
$var wire 20 {" uimm [19:0] $end
$var reg 32 |" immout [31:0] $end
$upscope $end
$scope module pcadder1 $end
$var wire 32 }" b [31:0] $end
$var wire 32 ~" y [31:0] $end
$var wire 32 !# a [31:0] $end
$upscope $end
$scope module pcreg $end
$var wire 1 " clk $end
$var wire 1 "# en $end
$var wire 1 # reset $end
$var wire 32 ## d [31:0] $end
$var reg 32 $# q [31:0] $end
$upscope $end
$scope module pcsrcmux $end
$var wire 32 %# d0 [31:0] $end
$var wire 32 &# d1 [31:0] $end
$var wire 1 = s $end
$var wire 32 '# y [31:0] $end
$var parameter 32 (# WIDTH $end
$upscope $end
$scope module pr1D $end
$var wire 1 3" clear $end
$var wire 1 " clk $end
$var wire 32 )# d [31:0] $end
$var wire 1 # reset $end
$var parameter 32 *# WIDTH $end
$var reg 32 +# q [31:0] $end
$upscope $end
$scope module pr1E $end
$var wire 1 4" clear $end
$var wire 1 " clk $end
$var wire 1 # reset $end
$var wire 32 ,# d [31:0] $end
$var parameter 32 -# WIDTH $end
$var reg 32 .# q [31:0] $end
$upscope $end
$scope module pr1M $end
$var wire 1 5" clear $end
$var wire 1 " clk $end
$var wire 32 /# d [31:0] $end
$var wire 1 # reset $end
$var parameter 32 0# WIDTH $end
$var reg 32 1# q [31:0] $end
$upscope $end
$scope module pr1W $end
$var wire 1 6" clear $end
$var wire 1 " clk $end
$var wire 32 2# d [31:0] $end
$var wire 1 # reset $end
$var parameter 32 3# WIDTH $end
$var reg 32 4# q [31:0] $end
$upscope $end
$scope module pr2D $end
$var wire 1 3" clear $end
$var wire 1 " clk $end
$var wire 32 5# d [31:0] $end
$var wire 1 # reset $end
$var parameter 32 6# WIDTH $end
$var reg 32 7# q [31:0] $end
$upscope $end
$scope module pr2E $end
$var wire 1 4" clear $end
$var wire 1 " clk $end
$var wire 1 # reset $end
$var wire 32 8# d [31:0] $end
$var parameter 32 9# WIDTH $end
$var reg 32 :# q [31:0] $end
$upscope $end
$scope module pr2M $end
$var wire 1 5" clear $end
$var wire 1 " clk $end
$var wire 1 # reset $end
$var wire 5 ;# d [4:0] $end
$var parameter 32 <# WIDTH $end
$var reg 5 =# q [4:0] $end
$upscope $end
$scope module pr2W $end
$var wire 1 6" clear $end
$var wire 1 " clk $end
$var wire 5 ># d [4:0] $end
$var wire 1 # reset $end
$var parameter 32 ?# WIDTH $end
$var reg 5 @# q [4:0] $end
$upscope $end
$scope module pr3D $end
$var wire 1 3" clear $end
$var wire 1 " clk $end
$var wire 32 A# d [31:0] $end
$var wire 1 # reset $end
$var parameter 32 B# WIDTH $end
$var reg 32 C# q [31:0] $end
$upscope $end
$scope module pr3E $end
$var wire 1 4" clear $end
$var wire 1 " clk $end
$var wire 32 D# d [31:0] $end
$var wire 1 # reset $end
$var parameter 32 E# WIDTH $end
$var reg 32 F# q [31:0] $end
$upscope $end
$scope module pr3M $end
$var wire 1 5" clear $end
$var wire 1 " clk $end
$var wire 1 # reset $end
$var wire 32 G# d [31:0] $end
$var parameter 32 H# WIDTH $end
$var reg 32 I# q [31:0] $end
$upscope $end
$scope module pr3W $end
$var wire 1 6" clear $end
$var wire 1 " clk $end
$var wire 32 J# d [31:0] $end
$var wire 1 # reset $end
$var parameter 32 K# WIDTH $end
$var reg 32 L# q [31:0] $end
$upscope $end
$scope module pr6E $end
$var wire 1 4" clear $end
$var wire 1 " clk $end
$var wire 5 M# d [4:0] $end
$var wire 1 # reset $end
$var parameter 32 N# WIDTH $end
$var reg 5 O# q [4:0] $end
$upscope $end
$scope module pr8E $end
$var wire 1 4" clear $end
$var wire 1 " clk $end
$var wire 32 P# d [31:0] $end
$var wire 1 # reset $end
$var parameter 32 Q# WIDTH $end
$var reg 32 R# q [31:0] $end
$upscope $end
$scope module pr9E $end
$var wire 1 4" clear $end
$var wire 1 " clk $end
$var wire 32 S# d [31:0] $end
$var wire 1 # reset $end
$var parameter 32 T# WIDTH $end
$var reg 32 U# q [31:0] $end
$upscope $end
$scope module regE $end
$var wire 1 4" clear $end
$var wire 1 " clk $end
$var wire 9 V# d [8:0] $end
$var wire 1 # reset $end
$var parameter 32 W# WIDTH $end
$var reg 9 X# q [8:0] $end
$upscope $end
$scope module regM $end
$var wire 1 5" clear $end
$var wire 1 " clk $end
$var wire 2 Y# d [1:0] $end
$var wire 1 # reset $end
$var parameter 32 Z# WIDTH $end
$var reg 2 [# q [1:0] $end
$upscope $end
$scope module regW $end
$var wire 1 6" clear $end
$var wire 1 " clk $end
$var wire 1 \# d $end
$var wire 1 # reset $end
$var parameter 32 ]# WIDTH $end
$var reg 1 ^# q $end
$upscope $end
$scope module rf $end
$var wire 1 " clk $end
$var wire 32 _# pc [31:0] $end
$var wire 5 `# ra1 [4:0] $end
$var wire 5 a# ra2 [4:0] $end
$var wire 5 b# wa3 [4:0] $end
$var wire 32 c# wd3 [31:0] $end
$var wire 1 J" we3 $end
$var wire 32 d# rd2 [31:0] $end
$var wire 32 e# rd1 [31:0] $end
$upscope $end
$scope module srcamux $end
$var wire 32 f# d0 [31:0] $end
$var wire 32 g# d1 [31:0] $end
$var wire 32 h# d2 [31:0] $end
$var wire 2 i# s [1:0] $end
$var wire 32 j# y [31:0] $end
$var parameter 32 k# WIDTH $end
$upscope $end
$scope module srcbmux $end
$var wire 32 l# d0 [31:0] $end
$var wire 32 m# d1 [31:0] $end
$var wire 1 h" s $end
$var wire 32 n# y [31:0] $end
$var parameter 32 o# WIDTH $end
$upscope $end
$upscope $end
$upscope $end
$upscope $end
$upscope $end
$enddefinitions $end
$comment Show the parameter values. $end
$dumpall
b100000 o#
b100000 k#
b1 ]#
b10 Z#
b1001 W#
b100000 T#
b100000 Q#
b101 N#
b100000 K#
b100000 H#
b100000 E#
b100000 B#
b101 ?#
b101 <#
b100000 9#
b100000 6#
b100000 3#
b100000 0#
b100000 -#
b100000 *#
b100000 (#
$end
#0
$dumpvars
b0 n#
b0 m#
b0 l#
b0 j#
b0 i#
b0 h#
b0 g#
b0 f#
b0 e#
b0 d#
b0 c#
b0 b#
b0 a#
b0 `#
b0 _#
0^#
0\#
b0 [#
b0 Y#
b0 X#
b1111 V#
b0 U#
b0 S#
b0 R#
b0 P#
b0 O#
b0 M#
b0 L#
b0 J#
b0 I#
b0 G#
b0 F#
b0 D#
b0 C#
b10000000000000000000000000000100 A#
b0 @#
b0 >#
b0 =#
b0 ;#
b0 :#
b0 8#
b0 7#
b10000000000000000000000000000000 5#
b0 4#
b0 2#
b0 1#
b0 /#
b0 .#
b0 ,#
b0 +#
b11110001111100101111001010110111 )#
b10000000000000000000000000000100 '#
bz &#
b10000000000000000000000000000100 %#
b10000000000000000000000000000000 $#
b10000000000000000000000000000100 ##
1"#
b10000000000000000000000000000000 !#
b10000000000000000000000000000100 ~"
b100 }"
b0 |"
b0 {"
b0 z"
b0 y"
b0 x"
b0 w"
b0 v"
b0 u"
b0 t"
b0 s"
b0 r"
b0 q"
b0 p"
0o"
b0 n"
b0 m"
b0 l"
b0 k"
b0 j"
b0 i"
0h"
b0 g"
b0 f"
1e"
b0 d"
b0 c"
b0 b"
b0 a"
b0 `"
0_"
0^"
b10000000000000000000000000000100 ]"
b0 \"
0["
b0 Z"
b0 Y"
b10000000000000000000000000000000 X"
b0 W"
b0 V"
b0 U"
b0 T"
b10000000000000000000000000000100 S"
b0 R"
b0 Q"
b0 P"
b0 O"
b0 N"
b0 M"
0L"
0K"
0J"
b0 I"
b0 H"
b0 G"
b0 F"
b0 E"
b0 D"
b0 C"
1B"
bz A"
b0 @"
b0 ?"
b0 >"
b0 ="
bx <"
bz ;"
b0 :"
b0 9"
b11110001111100101111001010110111 8"
b0 7"
06"
05"
04"
03"
b0 2"
b0 1"
b1111 0"
b1111 /"
b0 ."
b0 -"
b0 ,"
b0 +"
b0 *"
b0 )"
b0 ("
b0 '"
0&"
0%"
0$"
0#"
0""
0!"
0~
0}
1|
1{
0z
0y
b0 x
0w
0v
0u
0t
0s
0r
0q
0p
0o
0n
0m
0l
0k
0j
0i
0h
0g
0f
0e
0d
0c
0b
0a
0`
0_
0^
0]
0\
0[
0Z
0Y
0X
0W
0V
0U
b0 T
0S
0R
b1111 Q
b0 P
0O
b0 N
b0 M
b0 L
b0 K
b0 J
0I
b0 H
b10000000000000000000000000000000 G
b0 F
b0 E
b0 D
0C
b0 B
zA
bz @
b0 ?
bx >
0=
0<
0;
b0 :
09
z8
07
06
b11110001111100101111001010110111 5
04
bz 3
b10000000000000000000000000000000 2
b11110001111100101111001010110111 1
b0 0
b0 /
bz .
bx -
b0 ,
b11110001111100101111001010110111 +
0*
b10000000000000000000000000000000 )
b0 (
b0 '
bx &
bz %
bz $
1#
0"
b0 !
$end
#10
1"
#20
0"
#30
1"
#40
0"
#50
1"
#60
0"
#70
1"
#80
0"
#90
1"
#100
0"
#110
1"
#120
0"
#130
1"
#140
0"
#150
1"
#160
0"
#170
1"
#180
0"
#190
1"
#200
0"
0#
#210
b11110001111100101111000000000000 b"
b11110001111100101111000000000000 |"
b11110001111100101111000000000000 D#
b1 Q
b1 /"
b1 0"
0["
b0 q"
b11111111111111111111111111111111 r"
1C
1O
bx M"
bx 8#
bx d#
bx N"
bx ,#
bx e#
b100110001 V#
b1 P
b1 ."
b1 1"
b10 J
b10 *"
b10 7"
b10 x"
1y
b1111 m"
b1111 n"
b11110001111100101111 C"
b11110001111100101111 {"
b111100011111 d"
b111100011111 w"
b111100011111 K
b111100011111 +"
b111100011111 c"
b1111000 L
b1111000 ,"
b1111000 f"
b11111 H"
b11111 a#
0{
b101 B
b101 '"
b101 I"
b101 `#
b111 M
b111 -"
b111 g"
0|
b101 D
b101 ("
b101 R"
b101 M#
1}
b110111 H
b110111 )"
b110111 \"
b110001100010111 +
b110001100010111 1
b110001100010111 5
b110001100010111 8"
b110001100010111 )#
b1111 X#
b10000000000000000000000000000100 U"
b10000000000000000000000000000100 C#
b10000000000000000000000000000100 S#
b10000000000000000000000000000000 Z"
b10000000000000000000000000000000 7#
b10000000000000000000000000000000 P#
b11110001111100101111001010110111 `"
b11110001111100101111001010110111 +#
b10000000000000000000000000001000 ]"
b10000000000000000000000000001000 ##
b10000000000000000000000000001000 '#
b10000000000000000000000000001000 S"
b10000000000000000000000000001000 ~"
b10000000000000000000000000001000 %#
b10000000000000000000000000001000 A#
b10000000000000000000000000000100 )
b10000000000000000000000000000100 2
b10000000000000000000000000000100 G
b10000000000000000000000000000100 X"
b10000000000000000000000000000100 !#
b10000000000000000000000000000100 $#
b10000000000000000000000000000100 5#
1"
#220
0"
#230
0e"
1_"
0B"
b11110001111100101111000000000000 l"
b11110001111100101111000000000000 u"
b11110001111100101111000000000000 /#
b110000000000000 b"
b110000000000000 |"
b110000000000000 D#
0["
b111110001111100101111000000000000 q"
b11110001111100101111000000000000 r"
b0 M"
b0 8#
b0 d#
b0 N"
b0 ,#
b0 e#
b101010001 V#
b10 P
b10 ."
b10 1"
b0 F"
b0 t"
b0 j#
b10011 +
b10011 1
b10011 5
b10011 8"
b10011 )#
b110 C"
b110 {"
b0 d"
b0 w"
b0 K
b0 +"
b0 c"
b0 L
b0 ,"
b0 f"
b0 H"
b0 a#
1{
b0 B
b0 '"
b0 I"
b0 `#
b110 M
b110 -"
b110 g"
b110 D
b110 ("
b110 R"
b110 M#
1$"
0}
b10111 H
b10111 )"
b10111 \"
b1 m"
b1 n"
1h"
b1 i"
b1 i#
b10 Y#
1L"
b11110001111100101111000000000000 D"
b11110001111100101111000000000000 s"
b11110001111100101111000000000000 n#
b10000000000000000000000000001100 ]"
b10000000000000000000000000001100 ##
b10000000000000000000000000001100 '#
b10000000000000000000000000001100 S"
b10000000000000000000000000001100 ~"
b10000000000000000000000000001100 %#
b10000000000000000000000000001100 A#
b10000000000000000000000000001000 )
b10000000000000000000000000001000 2
b10000000000000000000000000001000 G
b10000000000000000000000000001000 X"
b10000000000000000000000000001000 !#
b10000000000000000000000000001000 $#
b10000000000000000000000000001000 5#
b110001100010111 `"
b110001100010111 +#
b10000000000000000000000000000100 Z"
b10000000000000000000000000000100 7#
b10000000000000000000000000000100 P#
b10000000000000000000000000001000 U"
b10000000000000000000000000001000 C#
b10000000000000000000000000001000 S#
b100110001 X#
bx G"
bx .#
bx f#
bx E"
bx :#
bx l#
b11110001111100101111000000000000 a"
b11110001111100101111000000000000 F#
b11110001111100101111000000000000 m#
b101 Q"
b101 ;#
b101 O#
b10000000000000000000000000000000 Y"
b10000000000000000000000000000000 G#
b10000000000000000000000000000000 R#
b10000000000000000000000000000000 h#
b10000000000000000000000000000100 T"
b10000000000000000000000000000100 U#
1"
#240
0"
#250
b10000000000000000110000000000100 l"
b10000000000000000110000000000100 u"
b10000000000000000110000000000100 /#
b0 b"
b0 |"
b0 D#
1d
b110000000000000000110000000000100 q"
b10000000000000000000000000000100 F"
b10000000000000000000000000000100 t"
b10000000000000000000000000000100 j#
b100010001 V#
b0 P
b0 ."
b0 1"
b110000000000000 r"
1I
1V
b10000 J
b10000 *"
b10000 7"
b10000 x"
0y
1\#
1K"
b110000000000000 D"
b110000000000000 s"
b110000000000000 n#
b10 i"
b10 i#
b0 C"
b0 {"
b0 M
b0 -"
b0 g"
1|
b0 D
b0 ("
b0 R"
b0 M#
1&"
0$"
b10011 H
b10011 )"
b10011 \"
b10000000000000000000000000000000 (
b10000000000000000000000000000000 /
b10000000000000000000000000000000 F
b10000000000000000000000000000000 W"
b10000000000000000000000000000000 I#
b10000000000000000000000000000000 J#
b101 P"
b101 =#
b101 >#
b11110001111100101111000000000000 ,
b11110001111100101111000000000000 0
b11110001111100101111000000000000 N
b11110001111100101111000000000000 k"
b11110001111100101111000000000000 1#
b11110001111100101111000000000000 2#
b10 [#
b10000000000000000000000000001000 T"
b10000000000000000000000000001000 U#
b10000000000000000000000000000100 Y"
b10000000000000000000000000000100 G#
b10000000000000000000000000000100 R#
b10000000000000000000000000000100 h#
b110 Q"
b110 ;#
b110 O#
b110000000000000 a"
b110000000000000 F#
b110000000000000 m#
b0 E"
b0 :#
b0 l#
b0 G"
b0 .#
b0 f#
b101010001 X#
b10000000000000000000000000001100 U"
b10000000000000000000000000001100 C#
b10000000000000000000000000001100 S#
b10000000000000000000000000001000 Z"
b10000000000000000000000000001000 7#
b10000000000000000000000000001000 P#
b10011 `"
b10011 +#
b10000000000000000000000000010000 ]"
b10000000000000000000000000010000 ##
b10000000000000000000000000010000 '#
b10000000000000000000000000010000 S"
b10000000000000000000000000010000 ~"
b10000000000000000000000000010000 %#
b10000000000000000000000000010000 A#
b10000000000000000000000000001100 )
b10000000000000000000000000001100 2
b10000000000000000000000000001100 G
b10000000000000000000000000001100 X"
b10000000000000000000000000001100 !#
b10000000000000000000000000001100 $#
b10000000000000000000000000001100 5#
1"
#260
0"
#270
1e"
0_"
1B"
b0 l"
b0 u"
b0 /#
b0 q"
b0 r"
b0 i"
b0 i#
b0 D"
b0 s"
b0 n#
b0 F"
b0 t"
b0 j#
1J"
b10000000000000000000000000010100 ]"
b10000000000000000000000000010100 ##
b10000000000000000000000000010100 '#
b10000000000000000000000000010100 S"
b10000000000000000000000000010100 ~"
b10000000000000000000000000010100 %#
b10000000000000000000000000010100 A#
b10000000000000000000000000010000 )
b10000000000000000000000000010000 2
b10000000000000000000000000010000 G
b10000000000000000000000000010000 X"
b10000000000000000000000000010000 !#
b10000000000000000000000000010000 $#
b10000000000000000000000000010000 5#
b10000000000000000000000000001100 Z"
b10000000000000000000000000001100 7#
b10000000000000000000000000001100 P#
b10000000000000000000000000010000 U"
b10000000000000000000000000010000 C#
b10000000000000000000000000010000 S#
b100010001 X#
b0 a"
b0 F#
b0 m#
b0 Q"
b0 ;#
b0 O#
b10000000000000000000000000001000 Y"
b10000000000000000000000000001000 G#
b10000000000000000000000000001000 R#
b10000000000000000000000000001000 h#
b10000000000000000000000000001100 T"
b10000000000000000000000000001100 U#
b10000000000000000110000000000100 ,
b10000000000000000110000000000100 0
b10000000000000000110000000000100 N
b10000000000000000110000000000100 k"
b10000000000000000110000000000100 1#
b10000000000000000110000000000100 2#
b110 P"
b110 =#
b110 >#
b10000000000000000000000000000100 (
b10000000000000000000000000000100 /
b10000000000000000000000000000100 F
b10000000000000000000000000000100 W"
b10000000000000000000000000000100 I#
b10000000000000000000000000000100 J#
1^#
b11110001111100101111000000000000 @"
b11110001111100101111000000000000 c#
b11110001111100101111000000000000 j"
b11110001111100101111000000000000 4#
b101 ?"
b101 b#
b101 O"
b101 @#
b10000000000000000000000000000000 !
b10000000000000000000000000000000 '
b10000000000000000000000000000000 E
b10000000000000000000000000000000 V"
b10000000000000000000000000000000 L#
b10000000000000000000000000000000 _#
1"
#280
0"
#290
b111111010000101000001010010011 +
b111111010000101000001010010011 1
b111111010000101000001010010011 5
b111111010000101000001010010011 8"
b111111010000101000001010010011 )#
b10000000000000000000000000000100 !
b10000000000000000000000000000100 '
b10000000000000000000000000000100 E
b10000000000000000000000000000100 V"
b10000000000000000000000000000100 L#
b10000000000000000000000000000100 _#
b110 ?"
b110 b#
b110 O"
b110 @#
b10000000000000000110000000000100 @"
b10000000000000000110000000000100 c#
b10000000000000000110000000000100 j"
b10000000000000000110000000000100 4#
b10000000000000000000000000001000 (
b10000000000000000000000000001000 /
b10000000000000000000000000001000 F
b10000000000000000000000000001000 W"
b10000000000000000000000000001000 I#
b10000000000000000000000000001000 J#
b0 P"
b0 =#
b0 >#
b0 ,
b0 0
b0 N
b0 k"
b0 1#
b0 2#
b10000000000000000000000000010000 T"
b10000000000000000000000000010000 U#
b10000000000000000000000000001100 Y"
b10000000000000000000000000001100 G#
b10000000000000000000000000001100 R#
b10000000000000000000000000001100 h#
b10000000000000000000000000010100 U"
b10000000000000000000000000010100 C#
b10000000000000000000000000010100 S#
b10000000000000000000000000010000 Z"
b10000000000000000000000000010000 7#
b10000000000000000000000000010000 P#
b10000000000000000000000000011000 ]"
b10000000000000000000000000011000 ##
b10000000000000000000000000011000 '#
b10000000000000000000000000011000 S"
b10000000000000000000000000011000 ~"
b10000000000000000000000000011000 %#
b10000000000000000000000000011000 A#
b10000000000000000000000000010100 )
b10000000000000000000000000010100 2
b10000000000000000000000000010100 G
b10000000000000000000000000010100 X"
b10000000000000000000000000010100 !#
b10000000000000000000000000010100 $#
b10000000000000000000000000010100 5#
1"
#300
0"
#310
b1111110100 b"
b1111110100 |"
b1111110100 D#
0d
bx M"
bx 8#
bx d#
b11110001111100101111000000000000 N"
b11110001111100101111000000000000 ,#
b11110001111100101111000000000000 e#
b10011 +
b10011 1
b10011 5
b10011 8"
b10011 )#
b111111010000101000 C"
b111111010000101000 {"
b1111110100 d"
b1111110100 w"
b1111110100 K
b1111110100 +"
b1111110100 c"
b11111 L
b11111 ,"
b11111 f"
b10100 H"
b10100 a#
0{
b101 B
b101 '"
b101 I"
b101 `#
0|
b101 D
b101 ("
b101 R"
b101 M#
b10000000000000000000000000011100 ]"
b10000000000000000000000000011100 ##
b10000000000000000000000000011100 '#
b10000000000000000000000000011100 S"
b10000000000000000000000000011100 ~"
b10000000000000000000000000011100 %#
b10000000000000000000000000011100 A#
b10000000000000000000000000011000 )
b10000000000000000000000000011000 2
b10000000000000000000000000011000 G
b10000000000000000000000000011000 X"
b10000000000000000000000000011000 !#
b10000000000000000000000000011000 $#
b10000000000000000000000000011000 5#
b111111010000101000001010010011 `"
b111111010000101000001010010011 +#
b10000000000000000000000000010100 Z"
b10000000000000000000000000010100 7#
b10000000000000000000000000010100 P#
b10000000000000000000000000011000 U"
b10000000000000000000000000011000 C#
b10000000000000000000000000011000 S#
b10000000000000000000000000010000 Y"
b10000000000000000000000000010000 G#
b10000000000000000000000000010000 R#
b10000000000000000000000000010000 h#
b10000000000000000000000000010100 T"
b10000000000000000000000000010100 U#
b10000000000000000000000000001100 (
b10000000000000000000000000001100 /
b10000000000000000000000000001100 F
b10000000000000000000000000001100 W"
b10000000000000000000000000001100 I#
b10000000000000000000000000001100 J#
b0 @"
b0 c#
b0 j"
b0 4#
b0 ?"
b0 b#
b0 O"
b0 @#
b10000000000000000000000000001000 !
b10000000000000000000000000001000 '
b10000000000000000000000000001000 E
b10000000000000000000000000001000 V"
b10000000000000000000000000001000 L#
b10000000000000000000000000001000 _#
1"
#320
0"
