waveform.vcd
$date
	Tue Jul 15 22:43:59 2025
$end
$version
	Icarus Verilog
$end
$timescale
	1ps
$end
$scope module sccomp_rom_testbench $end
$var reg 1 ! clk $end
$upscope $end
$scope module sccomp_rom_testbench $end
$var reg 1 " rstn $end
$upscope $end
$scope module sccomp_rom_testbench $end
$scope module uut $end
$scope module U_PipelineCPU $end
$var wire 32 # PC_IF [31:0] $end
$upscope $end
$upscope $end
$upscope $end
$scope module sccomp_rom_testbench $end
$scope module uut $end
$scope module U_PipelineCPU $end
$scope module if_id_reg $end
$var reg 32 $ instr_out [31:0] $end
$upscope $end
$upscope $end
$upscope $end
$upscope $end
$scope module sccomp_rom_testbench $end
$scope module uut $end
$scope module U_PipelineCPU $end
$scope module id_ex_reg $end
$var reg 32 % instr_out [31:0] $end
$upscope $end
$upscope $end
$upscope $end
$upscope $end
$scope module sccomp_rom_testbench $end
$scope module uut $end
$scope module U_PipelineCPU $end
$scope module ex_mem_reg $end
$var reg 32 & instr_out [31:0] $end
$upscope $end
$upscope $end
$upscope $end
$upscope $end
$scope module sccomp_rom_testbench $end
$scope module uut $end
$scope module U_PipelineCPU $end
$scope module mem_wb_reg $end
$var reg 32 ' instr_out [31:0] $end
$upscope $end
$upscope $end
$upscope $end
$upscope $end
$scope module sccomp_rom_testbench $end
$scope module uut $end
$scope module U_PipelineCPU $end
$scope module forwarding_unit $end
$var reg 2 ( forward_rs1_EX [1:0] $end
$upscope $end
$upscope $end
$upscope $end
$upscope $end
$scope module sccomp_rom_testbench $end
$scope module uut $end
$scope module U_PipelineCPU $end
$scope module forwarding_unit $end
$var reg 2 ) forward_rs2_EX [1:0] $end
$upscope $end
$upscope $end
$upscope $end
$upscope $end
$scope module sccomp_rom_testbench $end
$scope module uut $end
$scope module U_PipelineCPU $end
$var wire 32 * rs1_data_forwarded_EX [31:0] $end
$upscope $end
$upscope $end
$upscope $end
$scope module sccomp_rom_testbench $end
$scope module uut $end
$scope module U_PipelineCPU $end
$var wire 32 + alu_B_EX [31:0] $end
$upscope $end
$upscope $end
$upscope $end
$scope module sccomp_rom_testbench $end
$scope module uut $end
$scope module U_PipelineCPU $end
$scope module ex_mem_reg $end
$var reg 32 , alu_result_out [31:0] $end
$upscope $end
$upscope $end
$upscope $end
$upscope $end
$scope module sccomp_rom_testbench $end
$scope module uut $end
$scope module U_PipelineCPU $end
$var wire 32 - wb_data_WB [31:0] $end
$upscope $end
$upscope $end
$upscope $end
$scope module sccomp_rom_testbench $end
$scope module uut $end
$scope module U_PipelineCPU $end
$var wire 1 . RegWrite_WB $end
$upscope $end
$upscope $end
$upscope $end
$scope module sccomp_rom_testbench $end
$scope module uut $end
$scope module U_PipelineCPU $end
$var wire 5 / rd_addr_WB [4:0] $end
$upscope $end
$upscope $end
$upscope $end
$scope module sccomp_rom_testbench $end
$scope module uut $end
$scope module U_PipelineCPU $end
$scope module hazard_detection_unit $end
$var reg 1 0 stall_IF $end
$upscope $end
$upscope $end
$upscope $end
$upscope $end
$scope module sccomp_rom_testbench $end
$scope module uut $end
$scope module U_PipelineCPU $end
$scope module hazard_detection_unit $end
$var reg 1 1 flush_ID $end
$upscope $end
$upscope $end
$upscope $end
$upscope $end
$scope module sccomp_rom_testbench $end
$scope module uut $end
$scope module U_PipelineCPU $end
$scope module hazard_detection_unit $end
$var reg 1 2 flush_EX $end
$upscope $end
$upscope $end
$upscope $end
$upscope $end
$enddefinitions $end
$comment Show the parameter values. $end
$dumpall
$end
#0
$dumpvars
02
01
00
b0 /
0.
b0 -
b0 ,
b0 +
b0 *
b0 )
b0 (
b10011 '
b10011 &
b10011 %
b10011 $
b0 #
0"
0!
$end
#5000
1!
#10000
0!
#15000
1!
#20000
0!
1"
#25000
b1000011100000000000100010011 $
b100 #
1!
#30000
0!
#35000
b10000111 +
b1000 #
b100000010001000100010011 $
b1000011100000000000100010011 %
1!
#40000
0!
#45000
b10000111 *
b1 (
b1000 +
1.
b1000011100000000000100010011 &
b10000111 ,
b100000010001000100010011 %
b110010100010000000100010011 $
b1100 #
1!
#50000
0!
#55000
b1100101 +
b1000011100000000 *
b10 /
b10000111 -
b10000 #
b1000000010001000100010011 $
b110010100010000000100010011 %
b100000010001000100010011 &
b1000011100000000 ,
b1000011100000000000100010011 '
1!
#60000
0!
#65000
b1000011100000000 -
b1000011101100101 *
b10000 +
b100000010001000100010011 '
b110010100010000000100010011 &
b1000011101100101 ,
b1000000010001000100010011 %
b100001100000000000110010011 $
b10100 #
1!
#70000
0!
#75000
b0 (
b1000011 +
b0 *
b1000011101100101 -
b11000 #
b100000011001000110010011 $
b100001100000000000110010011 %
b1000000010001000100010011 &
b10000111011001010000000000000000 ,
b110010100010000000100010011 '
1!
#80000
0!
#85000
b1000011 *
b1 (
b10000111011001010000000000000000 -
b1000 +
b1000000010001000100010011 '
b100001100000000000110010011 &
b1000011 ,
b100000011001000110010011 %
b10000100011000000110010011 $
b11100 #
1!
#90000
0!
#95000
b100001 +
b100001100000000 *
b11 /
b1000011 -
b100000 #
b1100010000000100110011 $
b10000100011000000110010011 %
b100000011001000110010011 &
b100001100000000 ,
b100001100000000000110010011 '
1!
#100000
0!
#105000
b1 )
b0 (
b100001100000000 -
b10000111011001010000000000000000 *
b100001100100001 +
b100000011001000110010011 '
b10000100011000000110010011 &
b100001100100001 ,
b1100010000000100110011 %
b1000000010000000100011 $
b100100 #
1!
#110000
0!
#115000
b0 *
b0 +
b100001100100001 -
b101000 #
b100000000000010110010011 $
b1000000010000000100011 %
b1100010000000100110011 &
b10000111011001010100001100100001 ,
b10000100011000000110010011 '
1!
#120000
0!
#125000
b10 /
b10000111011001010100001100100001 -
b0 )
b1000 +
b1100010000000100110011 '
b1000000010000000100011 &
b0 ,
b100000000000010110010011 %
b10011110000011 $
b101100 #
1!
#130000
0!
#135000
b0 +
b0 /
b0 -
b110000 #
b100110011 $
b10011110000011 %
b100000000000010110010011 &
b1000 ,
0.
b1000000010000000100011 '
1!
#140000
0!
#145000
b1011 /
b1000 -
1.
b100000000000010110010011 '
b10011110000011 &
b0 ,
b100110011 %
b111100000000001000010011 $
b110100 #
1!
#150000
0!
#155000
b10000111011001010100001100100001 -
b10 )
b1111 +
b1111 /
b111000 #
b10001111111001110110011 $
b111100000000001000010011 %
b100110011 &
b10011110000011 '
1!
#160000
0!
#165000
b10000111011001010100001100100001 *
b1 )
b0 -
b10 /
b1111 +
b100110011 '
b111100000000001000010011 &
b1111 ,
b10001111111001110110011 %
b1000010001010010010011 $
b111100 #
1!
#170000
0!
#175000
b0 *
b0 )
b10 +
b100 /
b1111 -
b1000000 #
b100100111101001110110011 $
b1000010001010010010011 %
b10001111111001110110011 &
b1 ,
b111100000000001000010011 '
1!
#180000
0!
#185000
b1 *
b1 )
b10 (
b111 /
b1 -
b0 +
b10001111111001110110011 '
b1000010001010010010011 &
b0 ,
b100100111101001110110011 %
b10000100001001010010011 $
b1000100 #
1!
#190000
0!
#195000
b1111 *
b0 )
b0 (
b100 +
b1001 /
b0 -
b1001000 #
b10000011000110011 $
b10000100001001010010011 %
b100100111101001110110011 &
b1 ,
b1000010001010010010011 '
1!
#200000
0!
#205000
b0 *
b111 /
b1 -
b0 +
b100100111101001110110011 '
b10000100001001010010011 &
b11110000 ,
b10000011000110011 %
b111000011010110011 $
b1001100 #
1!
#210000
0!
#215000
b1 *
b101 /
b11110000 -
b1010000 #
b100010000000110010011 $
b111000011010110011 %
b10000011000110011 &
b0 ,
b10000100001001010010011 '
1!
#220000
0!
#225000
b0 *
b1100 /
b0 -
b1 +
b10000011000110011 '
b111000011010110011 &
b1 ,
b100010000000110010011 %
b10101100011000011001100011 $
b1010100 #
1!
#230000
0!
#235000
b1 *
b1 (
b1000 +
b1101 /
b1 -
b1011000 #
b10101111111010000110011 $
b10101100011000011001100011 %
b100010000000110010011 &
b111000011010110011 '
1!
#240000
0!
#245000
b11110000 +
b11 /
b0 (
b10000111011001010100001100100001 *
b100010000000110010011 '
b10101100011000011001100011 &
b11111111111111111111111111111001 ,
b10101111111010000110011 %
b1000011001010100010011 $
b1011100 #
1!
#250000
0!
#255000
b1 *
b10 +
b1100 /
b11111111111111111111111111111001 -
b1100000 #
b101001000101010000110011 $
b1000011001010100010011 %
b10101111111010000110011 &
b100000 ,
0.
b10101100011000011001100011 '
1!
#260000
0!
#265000
b100000 *
b1 )
b10 (
b1000 /
b100000 -
b100 +
1.
b10101111111010000110011 '
b1000011001010100010011 &
b100 ,
b101001000101010000110011 %
b100001101010011100110011 $
b1100100 #
1!
#270000
0!
#275000
b1 *
b10 +
b0 (
b1010 /
b100 -
b1101000 #
b1110000011001100011 $
b100001101010011100110011 %
b101001000101010000110011 &
b10 ,
b1000011001010100010011 '
1!
#280000
0!
#285000
02
01
b0 +
b0 )
b1 (
b1000 /
b10 -
b101001000101010000110011 '
b100001101010011100110011 &
b1 ,
b1110000011001100011 %
b1000000011010110011 $
b1101100 #
1!
#290000
0!
#295000
b10 *
b0 (
b1110 /
b1 -
b1110000 #
b11000011000110011 $
b1000000011010110011 %
b1110000011001100011 &
b100001101010011100110011 '
1!
#300000
0!
#305000
b1 *
b1100 /
0.
b1110000011001100011 '
b1000000011010110011 &
b10 ,
b11000011000110011 %
b10000101001001010010011 $
b1110100 #
1!
#310000
0!
#315000
b11110000 *
b100 +
b1101 /
b10 -
b1111000 #
b100011000000110010011 $
b10000101001001010010011 %
b11000011000110011 &
b1 ,
1.
b1000000011010110011 '
1!
#320000
0!
#325000
b1 *
11
b1100 /
b1 -
b1 +
b11000011000110011 '
b10000101001001010010011 &
b111100000000 ,
b100011000000110010011 %
b11111101100111111111000001101111 $
b1111100 #
1!
#330000
0!
#335000
b0 *
01
b11111111111111111111111111011000 +
b101 /
b111100000000 -
b1010000 #
b10011 $
b11111101100111111111000001101111 %
b100011000000110010011 &
b10 ,
b10000101001001010010011 '
1!
#340000
0!
#345000
b11 /
b10 -
b0 +
b100011000000110010011 '
b11111101100111111111000001101111 &
b0 ,
b10011 %
b10101100011000011001100011 $
b1010100 #
1!
#350000
0!
#355000
b1000 +
02
01
b1111100 -
b10 *
b0 /
b1011000 #
b10101111111010000110011 $
b10101100011000011001100011 %
b10011 &
b11111101100111111111000001101111 '
1!
#360000
0!
#365000
b111100000000 +
b10000111011001010100001100100001 *
b0 -
b10011 '
b10101100011000011001100011 &
b11111111111111111111111111111010 ,
b10101111111010000110011 %
b1000011001010100010011 $
b1011100 #
1!
#370000
0!
#375000
b10 *
b10 +
b1100 /
b11111111111111111111111111111010 -
b1100000 #
b101001000101010000110011 $
b1000011001010100010011 %
b10101111111010000110011 &
b1100000000 ,
0.
b10101100011000011001100011 '
1!
#380000
0!
#385000
b1100000000 *
b1 )
b10 (
b1000 /
b1100000000 -
b1000 +
1.
b10101111111010000110011 '
b1000011001010100010011 &
b1000 ,
b101001000101010000110011 %
b100001101010011100110011 $
b1100100 #
1!
#390000
0!
#395000
b10 *
b11 +
b0 (
b1010 /
b1000 -
b1101000 #
b1110000011001100011 $
b100001101010011100110011 %
b101001000101010000110011 &
b11 ,
b1000011001010100010011 '
1!
#400000
0!
#405000
02
01
b0 +
b1 *
b0 )
b1 (
b1000 /
b11 -
b101001000101010000110011 '
b100001101010011100110011 &
b1 ,
b1110000011001100011 %
b1000000011010110011 $
b1101100 #
1!
#410000
0!
#415000
b11 *
b0 (
b1110 /
b1 -
b1110000 #
b11000011000110011 $
b1000000011010110011 %
b1110000011001100011 &
b100001101010011100110011 '
1!
#420000
0!
#425000
b10 *
b1100 /
0.
b1110000011001100011 '
b1000000011010110011 &
b11 ,
b11000011000110011 %
b10000101001001010010011 $
b1110100 #
1!
#430000
0!
#435000
b111100000000 *
b100 +
b1101 /
b11 -
b1111000 #
b100011000000110010011 $
b10000101001001010010011 %
b11000011000110011 &
b10 ,
1.
b1000000011010110011 '
1!
#440000
0!
#445000
b10 *
11
b1100 /
b10 -
b1 +
b11000011000110011 '
b10000101001001010010011 &
b1111000000000000 ,
b100011000000110010011 %
b11111101100111111111000001101111 $
b1111100 #
1!
#450000
0!
#455000
b0 *
01
b11111111111111111111111111011000 +
b101 /
b1111000000000000 -
b1010000 #
b10011 $
b11111101100111111111000001101111 %
b100011000000110010011 &
b11 ,
b10000101001001010010011 '
1!
#460000
0!
#465000
b11 /
b11 -
b0 +
b100011000000110010011 '
b11111101100111111111000001101111 &
b0 ,
b10011 %
b10101100011000011001100011 $
b1010100 #
1!
#470000
0!
#475000
b1000 +
02
01
b1111100 -
b11 *
b0 /
b1011000 #
b10101111111010000110011 $
b10101100011000011001100011 %
b10011 &
b11111101100111111111000001101111 '
1!
#480000
0!
#485000
b1111000000000000 +
b10000111011001010100001100100001 *
b0 -
b10011 '
b10101100011000011001100011 &
b11111111111111111111111111111011 ,
b10101111111010000110011 %
b1000011001010100010011 $
b1011100 #
1!
#490000
0!
#495000
b11 *
b10 +
b1100 /
b11111111111111111111111111111011 -
b1100000 #
b101001000101010000110011 $
b1000011001010100010011 %
b10101111111010000110011 &
b100000000000000 ,
0.
b10101100011000011001100011 '
1!
#500000
0!
#505000
b100000000000000 *
b1 )
b10 (
b1000 /
b100000000000000 -
b1100 +
1.
b10101111111010000110011 '
b1000011001010100010011 &
b1100 ,
b101001000101010000110011 %
b100001101010011100110011 $
b1100100 #
1!
#510000
0!
#515000
b11 *
b100 +
b0 (
b1010 /
b1100 -
b1101000 #
b1110000011001100011 $
b100001101010011100110011 %
b101001000101010000110011 &
b100 ,
b1000011001010100010011 '
1!
#520000
0!
#525000
02
01
b0 +
b1 *
b0 )
b1 (
b1000 /
b100 -
b101001000101010000110011 '
b100001101010011100110011 &
b1 ,
b1110000011001100011 %
b1000000011010110011 $
b1101100 #
1!
#530000
0!
#535000
b100 *
b0 (
b1110 /
b1 -
b1110000 #
b11000011000110011 $
b1000000011010110011 %
b1110000011001100011 &
b100001101010011100110011 '
1!
#540000
0!
#545000
b11 *
b1100 /
0.
b1110000011001100011 '
b1000000011010110011 &
b100 ,
b11000011000110011 %
b10000101001001010010011 $
b1110100 #
1!
#550000
0!
#555000
b1111000000000000 *
b100 +
b1101 /
b100 -
b1111000 #
b100011000000110010011 $
b10000101001001010010011 %
b11000011000110011 &
b11 ,
1.
b1000000011010110011 '
1!
#560000
0!
#565000
b11 *
11
b1100 /
b11 -
b1 +
b11000011000110011 '
b10000101001001010010011 &
b11110000000000000000 ,
b100011000000110010011 %
b11111101100111111111000001101111 $
b1111100 #
1!
#570000
0!
#575000
b0 *
01
b11111111111111111111111111011000 +
b101 /
b11110000000000000000 -
b1010000 #
b10011 $
b11111101100111111111000001101111 %
b100011000000110010011 &
b100 ,
b10000101001001010010011 '
1!
#580000
0!
#585000
b11 /
b100 -
b0 +
b100011000000110010011 '
b11111101100111111111000001101111 &
b0 ,
b10011 %
b10101100011000011001100011 $
b1010100 #
1!
#590000
0!
#595000
b1000 +
02
01
b1111100 -
b100 *
b0 /
b1011000 #
b10101111111010000110011 $
b10101100011000011001100011 %
b10011 &
b11111101100111111111000001101111 '
1!
#600000
0!
#605000
b11110000000000000000 +
b10000111011001010100001100100001 *
b0 -
b10011 '
b10101100011000011001100011 &
b11111111111111111111111111111100 ,
b10101111111010000110011 %
b1000011001010100010011 $
b1011100 #
1!
#610000
0!
#615000
b100 *
b10 +
b1100 /
b11111111111111111111111111111100 -
b1100000 #
b101001000101010000110011 $
b1000011001010100010011 %
b10101111111010000110011 &
b1010000000000000000 ,
0.
b10101100011000011001100011 '
1!
#620000
0!
#625000
b1010000000000000000 *
b1 )
b10 (
b1000 /
b1010000000000000000 -
b10000 +
1.
b10101111111010000110011 '
b1000011001010100010011 &
b10000 ,
b101001000101010000110011 %
b100001101010011100110011 $
b1100100 #
1!
#630000
0!
#635000
b100 *
b101 +
b0 (
b1010 /
b10000 -
b1101000 #
b1110000011001100011 $
b100001101010011100110011 %
b101001000101010000110011 &
b101 ,
b1000011001010100010011 '
1!
#640000
0!
#645000
02
01
b0 +
b1 *
b0 )
b1 (
b1000 /
b101 -
b101001000101010000110011 '
b100001101010011100110011 &
b1 ,
b1110000011001100011 %
b1000000011010110011 $
b1101100 #
1!
#650000
0!
#655000
b101 *
b0 (
b1110 /
b1 -
b1110000 #
b11000011000110011 $
b1000000011010110011 %
b1110000011001100011 &
b100001101010011100110011 '
1!
#660000
0!
#665000
b100 *
b1100 /
0.
b1110000011001100011 '
b1000000011010110011 &
b101 ,
b11000011000110011 %
b10000101001001010010011 $
b1110100 #
1!
#670000
0!
#675000
b11110000000000000000 *
b100 +
b1101 /
b101 -
b1111000 #
b100011000000110010011 $
b10000101001001010010011 %
b11000011000110011 &
b100 ,
1.
b1000000011010110011 '
1!
#680000
0!
#685000
b100 *
11
b1100 /
b100 -
b1 +
b11000011000110011 '
b10000101001001010010011 &
b111100000000000000000000 ,
b100011000000110010011 %
b11111101100111111111000001101111 $
b1111100 #
1!
#690000
0!
#695000
b0 *
01
b11111111111111111111111111011000 +
b101 /
b111100000000000000000000 -
b1010000 #
b10011 $
b11111101100111111111000001101111 %
b100011000000110010011 &
b101 ,
b10000101001001010010011 '
1!
#700000
0!
#705000
b11 /
b101 -
b0 +
b100011000000110010011 '
b11111101100111111111000001101111 &
b0 ,
b10011 %
b10101100011000011001100011 $
b1010100 #
1!
#710000
0!
#715000
b1000 +
02
01
b1111100 -
b101 *
b0 /
b1011000 #
b10101111111010000110011 $
b10101100011000011001100011 %
b10011 &
b11111101100111111111000001101111 '
1!
#720000
0!
#725000
b111100000000000000000000 +
b10000111011001010100001100100001 *
b0 -
b10011 '
b10101100011000011001100011 &
b11111111111111111111111111111101 ,
b10101111111010000110011 %
b1000011001010100010011 $
b1011100 #
1!
#730000
0!
#735000
b101 *
b10 +
b1100 /
b11111111111111111111111111111101 -
b1100000 #
b101001000101010000110011 $
b1000011001010100010011 %
b10101111111010000110011 &
b11000000000000000000000 ,
0.
b10101100011000011001100011 '
1!
#740000
0!
#745000
b11000000000000000000000 *
b1 )
b10 (
b1000 /
b11000000000000000000000 -
b10100 +
1.
b10101111111010000110011 '
b1000011001010100010011 &
b10100 ,
b101001000101010000110011 %
b100001101010011100110011 $
b1100100 #
1!
#750000
0!
#755000
b101 *
b110 +
b0 (
b1010 /
b10100 -
b1101000 #
b1110000011001100011 $
b100001101010011100110011 %
b101001000101010000110011 &
b110 ,
b1000011001010100010011 '
1!
#760000
0!
#765000
02
01
b0 +
b1 *
b0 )
b1 (
b1000 /
b110 -
b101001000101010000110011 '
b100001101010011100110011 &
b1 ,
b1110000011001100011 %
b1000000011010110011 $
b1101100 #
1!
#770000
0!
#775000
b110 *
b0 (
b1110 /
b1 -
b1110000 #
b11000011000110011 $
b1000000011010110011 %
b1110000011001100011 &
b100001101010011100110011 '
1!
#780000
0!
#785000
b101 *
b1100 /
0.
b1110000011001100011 '
b1000000011010110011 &
b110 ,
b11000011000110011 %
b10000101001001010010011 $
b1110100 #
1!
#790000
0!
#795000
b111100000000000000000000 *
b100 +
b1101 /
b110 -
b1111000 #
b100011000000110010011 $
b10000101001001010010011 %
b11000011000110011 &
b101 ,
1.
b1000000011010110011 '
1!
#800000
0!
#805000
b101 *
11
b1100 /
b101 -
b1 +
b11000011000110011 '
b10000101001001010010011 &
b1111000000000000000000000000 ,
b100011000000110010011 %
b11111101100111111111000001101111 $
b1111100 #
1!
#810000
0!
#815000
b0 *
01
b11111111111111111111111111011000 +
b101 /
b1111000000000000000000000000 -
b1010000 #
b10011 $
b11111101100111111111000001101111 %
b100011000000110010011 &
b110 ,
b10000101001001010010011 '
1!
#820000
0!
#825000
b11 /
b110 -
b0 +
b100011000000110010011 '
b11111101100111111111000001101111 &
b0 ,
b10011 %
b10101100011000011001100011 $
b1010100 #
1!
#830000
0!
#835000
b1000 +
02
01
b1111100 -
b110 *
b0 /
b1011000 #
b10101111111010000110011 $
b10101100011000011001100011 %
b10011 &
b11111101100111111111000001101111 '
1!
#840000
0!
#845000
b1111000000000000000000000000 +
b10000111011001010100001100100001 *
b0 -
b10011 '
b10101100011000011001100011 &
b11111111111111111111111111111110 ,
b10101111111010000110011 %
b1000011001010100010011 $
b1011100 #
1!
#850000
0!
#855000
b110 *
b10 +
b1100 /
b11111111111111111111111111111110 -
b1100000 #
b101001000101010000110011 $
b1000011001010100010011 %
b10101111111010000110011 &
b111000000000000000000000000 ,
0.
b10101100011000011001100011 '
1!
#860000
0!
#865000
b111000000000000000000000000 *
b1 )
b10 (
b1000 /
b111000000000000000000000000 -
b11000 +
1.
b10101111111010000110011 '
b1000011001010100010011 &
b11000 ,
b101001000101010000110011 %
b100001101010011100110011 $
b1100100 #
1!
#870000
0!
#875000
b110 *
b111 +
b0 (
b1010 /
b11000 -
b1101000 #
b1110000011001100011 $
b100001101010011100110011 %
b101001000101010000110011 &
b111 ,
b1000011001010100010011 '
1!
#880000
0!
#885000
02
01
b0 +
b1 *
b0 )
b1 (
b1000 /
b111 -
b101001000101010000110011 '
b100001101010011100110011 &
b1 ,
b1110000011001100011 %
b1000000011010110011 $
b1101100 #
1!
#890000
0!
#895000
b111 *
b0 (
b1110 /
b1 -
b1110000 #
b11000011000110011 $
b1000000011010110011 %
b1110000011001100011 &
b100001101010011100110011 '
1!
#900000
0!
#905000
b110 *
b1100 /
0.
b1110000011001100011 '
b1000000011010110011 &
b111 ,
b11000011000110011 %
b10000101001001010010011 $
b1110100 #
1!
#910000
0!
#915000
b1111000000000000000000000000 *
b100 +
b1101 /
b111 -
b1111000 #
b100011000000110010011 $
b10000101001001010010011 %
b11000011000110011 &
b110 ,
1.
b1000000011010110011 '
1!
#920000
0!
#925000
b110 *
11
b1100 /
b110 -
b1 +
b11000011000110011 '
b10000101001001010010011 &
b11110000000000000000000000000000 ,
b100011000000110010011 %
b11111101100111111111000001101111 $
b1111100 #
1!
#930000
0!
#935000
b0 *
01
b11111111111111111111111111011000 +
b101 /
b11110000000000000000000000000000 -
b1010000 #
b10011 $
b11111101100111111111000001101111 %
b100011000000110010011 &
b111 ,
b10000101001001010010011 '
1!
#940000
0!
#945000
b11 /
b111 -
b0 +
b100011000000110010011 '
b11111101100111111111000001101111 &
b0 ,
b10011 %
b10101100011000011001100011 $
b1010100 #
1!
#950000
0!
#955000
b1000 +
02
01
b1111100 -
b111 *
b0 /
b1011000 #
b10101111111010000110011 $
b10101100011000011001100011 %
b10011 &
b11111101100111111111000001101111 '
1!
#960000
0!
#965000
b11110000000000000000000000000000 +
b10000111011001010100001100100001 *
b0 -
b10011 '
b10101100011000011001100011 &
b11111111111111111111111111111111 ,
b10101111111010000110011 %
b1000011001010100010011 $
b1011100 #
1!
#970000
0!
#975000
b111 *
b10 +
b1100 /
b11111111111111111111111111111111 -
b1100000 #
b101001000101010000110011 $
b1000011001010100010011 %
b10101111111010000110011 &
b10000000000000000000000000000000 ,
0.
b10101100011000011001100011 '
1!
#980000
0!
#985000
b10000000000000000000000000000000 *
b1 )
b10 (
b1000 /
b10000000000000000000000000000000 -
b11100 +
1.
b10101111111010000110011 '
b1000011001010100010011 &
b11100 ,
b101001000101010000110011 %
b100001101010011100110011 $
b1100100 #
1!
#990000
0!
#995000
b111 *
b1000 +
b0 (
b1010 /
b11100 -
b1101000 #
b1110000011001100011 $
b100001101010011100110011 %
b101001000101010000110011 &
b1000 ,
b1000011001010100010011 '
1!
#1000000
0!
#1005000
02
01
b0 +
b1 *
b0 )
b1 (
b1000 /
b1000 -
b101001000101010000110011 '
b100001101010011100110011 &
b1 ,
b1110000011001100011 %
b1000000011010110011 $
b1101100 #
1!
#1010000
0!
#1015000
b1000 *
b0 (
b1110 /
b1 -
b1110000 #
b11000011000110011 $
b1000000011010110011 %
b1110000011001100011 &
b100001101010011100110011 '
1!
#1020000
0!
#1025000
b111 *
b1100 /
0.
b1110000011001100011 '
b1000000011010110011 &
b1000 ,
b11000011000110011 %
b10000101001001010010011 $
b1110100 #
1!
#1030000
0!
#1035000
b11110000000000000000000000000000 *
b100 +
b1101 /
b1000 -
b1111000 #
b100011000000110010011 $
b10000101001001010010011 %
b11000011000110011 &
b111 ,
1.
b1000000011010110011 '
1!
#1040000
0!
#1045000
b111 *
11
b1100 /
b111 -
b1 +
b11000011000110011 '
b10000101001001010010011 &
b0 ,
b100011000000110010011 %
b11111101100111111111000001101111 $
b1111100 #
1!
#1050000
0!
#1055000
b0 *
01
b11111111111111111111111111011000 +
b101 /
b0 -
b1010000 #
b10011 $
b11111101100111111111000001101111 %
b100011000000110010011 &
b1000 ,
b10000101001001010010011 '
1!
#1060000
0!
#1065000
b11 /
b1000 -
b0 +
b100011000000110010011 '
b11111101100111111111000001101111 &
b0 ,
b10011 %
b10101100011000011001100011 $
b1010100 #
1!
#1070000
0!
#1075000
b1000 +
12
11
b1111100 -
b1000 *
b0 /
b1011000 #
b10101111111010000110011 $
b10101100011000011001100011 %
b10011 &
b11111101100111111111000001101111 '
1!
#1080000
0!
#1085000
b0 +
b0 *
02
01
b0 -
b10011 '
b10101100011000011001100011 &
b10011 %
b10011 $
b1111100 #
1!
#1090000
0!
#1095000
b1100 /
b10000000 #
b110000010010011100110011 $
b10011 &
0.
b10101100011000011001100011 '
1!
#1100000
0!
#1105000
b111 +
b0 /
b10011 '
b110000010010011100110011 %
b1110000010001100011 $
b10000100 #
1!
#1110000
0!
#1115000
b0 +
b1 *
11
b1 (
b10001000 #
b100110000000000000011101111 $
b1110000010001100011 %
b110000010010011100110011 &
b1 ,
1.
1!
#1120000
0!
#1125000
b0 *
01
b1110 /
b1 -
b0 (
b1001100 +
b110000010010011100110011 '
b1110000010001100011 &
b100110000000000000011101111 %
b10011 $
b11010000 #
1!
#1130000
0!
#1135000
b0 +
b1000 /
b11010100 #
b111100000000001010010011 $
b10011 %
b100110000000000000011101111 &
b0 ,
0.
b1110000010001100011 '
1!
#1140000
0!
#1145000
b10001000 -
b1 /
b1111 +
1.
b100110000000000000011101111 '
b10011 &
b111100000000001010010011 %
b1001100001010100010011 $
b11011000 #
1!
#1150000
0!
#1155000
b111 *
b10 +
b0 -
b0 /
b11011100 #
b101000101001001010110011 $
b1001100001010100010011 %
b111100000000001010010011 &
b1111 ,
b10011 '
1!
#1160000
0!
#1165000
b1111 *
b1 )
b10 (
b101 /
b1111 -
b11100 +
b111100000000001010010011 '
b1001100001010100010011 &
b11100 ,
b101000101001001010110011 %
b10100100110001100110011 $
b11100000 #
1!
#1170000
0!
#1175000
b1111 *
b11110000000000000000000000000000 +
b0 (
b1010 /
b11100 -
b11100100 #
b11111111111100110100001100010011 $
b10100100110001100110011 %
b101000101001001010110011 &
b11110000000000000000000000000000 ,
b1001100001010100010011 '
1!
#1180000
0!
#1185000
b11110000000000000000000000001111 *
b0 )
b1 (
b101 /
b11110000000000000000000000000000 -
b11111111111111111111111111111111 +
b101000101001001010110011 '
b10100100110001100110011 &
b11110000000000000000000000001111 ,
b11111111111100110100001100010011 %
b11001111111011110110011 $
b11101000 #
1!
#1190000
0!
#1195000
b1 )
b0 (
b1111111111111111111111110000 +
b10000111011001010100001100100001 *
b110 /
b11110000000000000000000000001111 -
b11101100 #
b100101101001010000110011 $
b11001111111011110110011 %
b11111111111100110100001100010011 &
b1111111111111111111111110000 ,
b10100100110001100110011 '
1!
#1200000
0!
#1205000
b0 +
b1000 *
b0 )
b1111111111111111111111110000 -
b11111111111100110100001100010011 '
b11001111111011110110011 &
b111011001010100001100100000 ,
b100101101001010000110011 %
b100001111110011110110011 $
b11110000 #
1!
#1210000
0!
#1215000
b1000 +
b111011001010100001100100000 *
b1 )
b10 (
b1111 /
b111011001010100001100100000 -
b11110100 #
b101000111001001110110011 $
b100001111110011110110011 %
b100101101001010000110011 &
b1000 ,
b11001111111011110110011 '
1!
#1220000
0!
#1225000
b1 *
b11100 +
b0 )
b0 (
b1000 /
b1000 -
b100101101001010000110011 '
b100001111110011110110011 &
b111011001010100001100101000 ,
b101000111001001110110011 %
b11101111110011110110011 $
b11111000 #
1!
#1230000
0!
#1235000
b10000000000000000000000000000 +
b111011001010100001100101000 *
b1 )
b10 (
b1111 /
b111011001010100001100101000 -
b11111100 #
b1000000001100111 $
b11101111110011110110011 %
b101000111001001110110011 &
b10000000000000000000000000000 ,
b100001111110011110110011 '
1!
#1240000
0!
#1245000
b10001000 *
b0 )
b0 (
11
b111 /
b10000000000000000000000000000 -
b0 +
b101000111001001110110011 '
b11101111110011110110011 &
b10111011001010100001100101000 ,
b1000000001100111 %
bx $
b100000000 #
1!
#1250000
0!
#1255000
bx +
bx *
01
b1111 /
b10111011001010100001100101000 -
b10001000 #
b10011 $
bx %
b1000000001100111 &
b10001000 ,
b11101111110011110110011 '
1!
#1260000
0!
#1265000
b11111100 -
b0 *
b0 /
b0 +
b1000000001100111 '
bx &
bx ,
b10011 %
b10000100001001000010011 $
b10001100 #
1!
#1270000
0!
#1275000
b1111 *
b100 +
bx -
bx /
b10010000 #
b100010000000100010011 $
b10000100001001000010011 %
b10011 &
b0 ,
x.
bx '
1!
#1280000
0!
#1285000
b0 *
b0 /
b0 -
b1 +
1.
b10011 '
b10000100001001000010011 &
b11110000 ,
b100010000000100010011 %
b11111010101100010001001011100011 $
b10010100 #
1!
#1290000
0!
#1295000
12
11
b1 *
b1 (
b1000 +
b100 /
b11110000 -
b10011000 #
b111100000010001000100011 $
b11111010101100010001001011100011 %
b100010000000100010011 &
b1 ,
b10000100001001000010011 '
1!
#1300000
0!
#1305000
b0 +
02
01
b10 /
b1 -
b0 (
b0 *
b100010000000100010011 '
b11111010101100010001001011100011 &
b11111111111111111111111111111001 ,
b10011 %
b10011 $
b110100 #
1!
#1310000
0!
